docs/results/async_fifo_filldrain.vcd
$version Generated by VerilatedVcd $end
$timescale 1ps $end
 $scope module $rootio $end
  $var wire 1 " wr_clk $end
  $var wire 1 # rd_clk $end
  $var wire 1 $ rst_n $end
  $var wire 32 % wr_data [31:0] $end
  $var wire 1 & wr_en $end
  $var wire 1 ' full $end
  $var wire 1 ( almost_full $end
  $var wire 32 ) rd_data [31:0] $end
  $var wire 1 * rd_en $end
  $var wire 1 + empty $end
  $var wire 1 , almost_empty $end
 $upscope $end
 $scope module async_fifo $end
  $var wire 32 6! DATA_WIDTH [31:0] $end
  $var wire 32 7! ADDR_WIDTH [31:0] $end
  $var wire 32 8! AFULL_THRES [31:0] $end
  $var wire 32 7! AEMPTY_THRES [31:0] $end
  $var wire 1 - wr_clk $end
  $var wire 1 . rd_clk $end
  $var wire 1 / rst_n $end
  $var wire 32 0 wr_data [31:0] $end
  $var wire 1 1 wr_en $end
  $var wire 1 2 full $end
  $var wire 1 3 almost_full $end
  $var wire 32 4 rd_data [31:0] $end
  $var wire 1 5 rd_en $end
  $var wire 1 6 empty $end
  $var wire 1 7 almost_empty $end
  $var wire 4 8 wr_addr [3:0] $end
  $var wire 4 9 rd_addr [3:0] $end
  $var wire 5 : wptr_gray [4:0] $end
  $var wire 5 ; rptr_gray [4:0] $end
  $var wire 5 < wptr_gray_sync [4:0] $end
  $var wire 5 = rptr_gray_sync [4:0] $end
  $var wire 1 > wr_mem_en $end
  $var wire 1 ? wr_rst_n $end
  $var wire 1 @ rd_rst_n $end
  $scope module async_fifo_assertions_inst $end
   $var wire 32 6! DATA_WIDTH [31:0] $end
   $var wire 32 7! ADDR_WIDTH [31:0] $end
   $var wire 1 A wr_clk $end
   $var wire 1 B rd_clk $end
   $var wire 1 C wr_rst_n $end
   $var wire 1 D rd_rst_n $end
   $var wire 1 E wr_en $end
   $var wire 1 F rd_en $end
   $var wire 1 G full $end
   $var wire 1 H almost_full $end
   $var wire 1 I empty $end
   $var wire 1 J almost_empty $end
   $var wire 1 K wr_mem_en $end
   $var wire 4 L wr_addr [3:0] $end
   $var wire 4 M rd_addr [3:0] $end
   $var wire 5 N wptr_gray [4:0] $end
   $var wire 5 O rptr_gray [4:0] $end
  $upscope $end
  $scope module fifo_mem_inst $end
   $var wire 32 6! DATA_WIDTH [31:0] $end
   $var wire 32 7! ADDR_WIDTH [31:0] $end
   $var wire 1 P wr_clk $end
   $var wire 1 Q wr_en $end
   $var wire 4 R wr_addr [3:0] $end
   $var wire 32 S wr_data [31:0] $end
   $var wire 1 T rd_clk $end
   $var wire 4 U rd_addr [3:0] $end
   $var wire 32 V rd_data [31:0] $end
   $var wire 32 9! DEPTH [31:0] $end
   $var wire 32 W mem[0] [31:0] $end
   $var wire 32 X mem[1] [31:0] $end
   $var wire 32 Y mem[2] [31:0] $end
   $var wire 32 Z mem[3] [31:0] $end
   $var wire 32 [ mem[4] [31:0] $end
   $var wire 32 \ mem[5] [31:0] $end
   $var wire 32 ] mem[6] [31:0] $end
   $var wire 32 ^ mem[7] [31:0] $end
   $var wire 32 _ mem[8] [31:0] $end
   $var wire 32 ` mem[9] [31:0] $end
   $var wire 32 a mem[10] [31:0] $end
   $var wire 32 b mem[11] [31:0] $end
   $var wire 32 c mem[12] [31:0] $end
   $var wire 32 d mem[13] [31:0] $end
   $var wire 32 e mem[14] [31:0] $end
   $var wire 32 f mem[15] [31:0] $end
  $upscope $end
  $scope module rd_reset_sync_inst $end
   $var wire 1 g clk $end
   $var wire 1 h arst_n $end
   $var wire 1 i srst_n $end
   $var wire 1 j srst_n_meta $end
  $upscope $end
  $scope module rptr_empty_inst $end
   $var wire 32 7! ADDR_WIDTH [31:0] $end
   $var wire 32 7! AEMPTY_THRES [31:0] $end
   $var wire 1 k rd_clk $end
   $var wire 1 l rst_n $end
   $var wire 1 m rd_en $end
   $var wire 5 n wptr_gray_sync [4:0] $end
   $var wire 4 o rd_addr [3:0] $end
   $var wire 5 p rptr_gray [4:0] $end
   $var wire 1 q empty $end
   $var wire 1 r almost_empty $end
   $var wire 5 s rbin [4:0] $end
   $var wire 5 t rbin_next [4:0] $end
   $var wire 5 u rptr_gray_next [4:0] $end
   $var wire 5 v wbin_sync [4:0] $end
   $var wire 5 w used_next [4:0] $end
  $upscope $end
  $scope module sync_r2w_inst $end
   $var wire 32 7! ADDR_WIDTH [31:0] $end
   $var wire 1 x wr_clk $end
   $var wire 1 y rst_n $end
   $var wire 5 z rptr_gray [4:0] $end
   $var wire 5 { rptr_gray_sync [4:0] $end
   $var wire 5 | rptr_gray_meta [4:0] $end
  $upscope $end
  $scope module sync_w2r_inst $end
   $var wire 32 7! ADDR_WIDTH [31:0] $end
   $var wire 1 } rd_clk $end
   $var wire 1 ~ rst_n $end
   $var wire 5 !! wptr_gray [4:0] $end
   $var wire 5 "! wptr_gray_sync [4:0] $end
   $var wire 5 #! wptr_gray_meta [4:0] $end
  $upscope $end
  $scope module wptr_full_inst $end
   $var wire 32 7! ADDR_WIDTH [31:0] $end
   $var wire 32 8! AFULL_THRES [31:0] $end
   $var wire 1 $! wr_clk $end
   $var wire 1 %! rst_n $end
   $var wire 1 &! wr_en $end
   $var wire 5 '! rptr_gray_sync [4:0] $end
   $var wire 4 (! wr_addr [3:0] $end
   $var wire 5 )! wptr_gray [4:0] $end
   $var wire 1 *! full $end
   $var wire 1 +! almost_full $end
   $var wire 5 ,! wbin [4:0] $end
   $var wire 5 -! wbin_next [4:0] $end
   $var wire 5 .! wptr_gray_next [4:0] $end
   $var wire 5 /! rbin_sync [4:0] $end
   $var wire 5 0! used_next [4:0] $end
   $var wire 1 1! full_next $end
  $upscope $end
  $scope module wr_reset_sync_inst $end
   $var wire 1 2! clk $end
   $var wire 1 3! arst_n $end
   $var wire 1 4! srst_n $end
   $var wire 1 5! srst_n_meta $end
  $upscope $end
 $upscope $end
 $scope module pkg_defines $end
  $var wire 32 :! AXIS_DATA_WIDTH [31:0] $end
  $var wire 32 ;! AXIS_KEEP_WIDTH [31:0] $end
  $var wire 32 <! AXIS_WORD_WIDTH [31:0] $end
  $var wire 16 =! ETHERTYPE_IPV4 [15:0] $end
  $var wire 8 >! IP_PROTO_UDP [7:0] $end
  $var wire 16 ?! MARKET_DATA_PORT [15:0] $end
 $upscope $end
$enddefinitions $end


#0
0"
0#
0$
b00000000000000000000000000000000 %
0&
0'
0(
b00000000000000000000000000000000 )
0*
0+
0,
0-
0.
0/
b00000000000000000000000000000000 0
01
02
03
b00000000000000000000000000000000 4
05
06
07
b0000 8
b0000 9
b00000 :
b00000 ;
b00000 <
b00000 =
0>
0?
0@
0A
0B
0C
0D
0E
0F
0G
0H
0I
0J
0K
b0000 L
b0000 M
b00000 N
b00000 O
0P
0Q
b0000 R
b00000000000000000000000000000000 S
0T
b0000 U
b00000000000000000000000000000000 V
b00000000000000000000000000000000 W
b00000000000000000000000000000000 X
b00000000000000000000000000000000 Y
b00000000000000000000000000000000 Z
b00000000000000000000000000000000 [
b00000000000000000000000000000000 \
b00000000000000000000000000000000 ]
b00000000000000000000000000000000 ^
b00000000000000000000000000000000 _
b00000000000000000000000000000000 `
b00000000000000000000000000000000 a
b00000000000000000000000000000000 b
b00000000000000000000000000000000 c
b00000000000000000000000000000000 d
b00000000000000000000000000000000 e
b00000000000000000000000000000000 f
0g
0h
0i
0j
0k
0l
0m
b00000 n
b0000 o
b00000 p
0q
0r
b00000 s
b00000 t
b00000 u
b00000 v
b00000 w
0x
0y
b00000 z
b00000 {
b00000 |
0}
0~
b00000 !!
b00000 "!
b00000 #!
0$!
0%!
0&!
b00000 '!
b0000 (!
b00000 )!
0*!
0+!
b00000 ,!
b00000 -!
b00000 .!
b00000 /!
b00000 0!
01!
02!
03!
04!
05!
b00000000000000000000000000100000 6!
b00000000000000000000000000000100 7!
b00000000000000000000000000001100 8!
b00000000000000000000000000010000 9!
b00000000000000000000000001000000 :!
b00000000000000000000000000001000 ;!
b00000000000000000000000001001001 <!
b0000100000000000 =!
b00010001 >!
b0011000000111001 ?!
#3000
1#
1+
1,
1.
16
17
1B
1I
1J
1T
1g
1k
1q
1r
1}
#4000
1"
1-
1A
1P
1x
1$!
12!
#6000
0#
0.
0B
0T
0g
0k
0}
#8000
0"
0-
0A
0P
0x
0$!
02!
#9000
1#
1.
1B
1T
1g
1k
1}
#12000
1"
0#
1-
0.
1A
0B
1P
0T
0g
0k
1x
0}
1$!
12!
#15000
1#
1.
1B
1T
1g
1k
1}
#16000
0"
0-
0A
0P
0x
0$!
02!
#18000
0#
0.
0B
0T
0g
0k
0}
#20000
1"
1-
1A
1P
1x
1$!
12!
#21000
1#
1.
1B
1T
1g
1k
1}
#24000
0"
0#
0-
0.
0A
0B
0P
0T
0g
0k
0x
0}
0$!
02!
#27000
1#
1.
1B
1T
1g
1k
1}
#28000
1"
1-
1A
1P
1x
1$!
12!
#30000
0#
0.
0B
0T
0g
0k
0}
#32000
0"
0-
0A
0P
0x
0$!
02!
#33000
1#
1.
1B
1T
1g
1k
1}
#36000
1"
0#
1$
1-
0.
1/
1A
0B
1P
0T
0g
1h
0k
1x
0}
1$!
12!
13!
#39000
1#
1.
1B
1T
1g
1j
1k
1}
#40000
0"
0-
0A
0P
0x
0$!
02!
#42000
0#
0.
0B
0T
0g
0k
0}
#44000
1"
1-
1A
1P
1x
1$!
12!
15!
#45000
1#
1.
1@
1B
1D
1T
1g
1i
1k
1l
1}
1~
#48000
0"
0#
0-
0.
0A
0B
0P
0T
0g
0k
0x
0}
0$!
02!
#51000
1#
1.
1B
1T
1g
1k
1}
#52000
1"
1-
1?
1A
1C
1P
1x
1y
1$!
1%!
12!
14!
#54000
0#
0.
0B
0T
0g
0k
0}
#56000
0"
0-
0A
0P
0x
0$!
02!
#57000
1#
1.
1B
1T
1g
1k
1}
#60000
1"
0#
1-
0.
1A
0B
1P
0T
0g
0k
1x
0}
1$!
12!
#63000
1#
1.
1B
1T
1g
1k
1}
#64000
0"
0-
0A
0P
0x
0$!
02!
#66000
0#
0.
0B
0T
0g
0k
0}
#68000
1"
1-
1A
1P
1x
1$!
12!
#69000
1#
1.
1B
1T
1g
1k
1}
#72000
0"
0#
0-
0.
0A
0B
0P
0T
0g
0k
0x
0}
0$!
02!
#75000
1#
1.
1B
1T
1g
1k
1}
#76000
1"
1-
1A
1P
1x
1$!
12!
#78000
0#
0.
0B
0T
0g
0k
0}
#80000
0"
0-
0A
0P
0x
0$!
02!
#81000
1#
1.
1B
1T
1g
1k
1}
#84000
1"
0#
1-
0.
1A
0B
1P
0T
0g
0k
1x
0}
1$!
12!
#87000
1#
1.
1B
1T
1g
1k
1}
#88000
0"
0-
0A
0P
0x
0$!
02!
#90000
0#
0.
0B
0T
0g
0k
0}
#92000
1"
1-
1A
1P
1x
1$!
12!
#93000
1#
1.
1B
1T
1g
1k
1}
#96000
0"
0#
0-
0.
0A
0B
0P
0T
0g
0k
0x
0}
0$!
02!
#99000
1#
1.
1B
1T
1g
1k
1}
#100000
1"
1-
1A
1P
1x
1$!
12!
#102000
0#
0.
0B
0T
0g
0k
0}
#104000
0"
0-
0A
0P
0x
0$!
02!
#105000
1#
1.
1B
1T
1g
1k
1}
#108000
1"
0#
1-
0.
1A
0B
1P
0T
0g
0k
1x
0}
1$!
12!
#111000
1#
1.
1B
1T
1g
1k
1}
#112000
0"
1&
0-
11
1>
0A
1E
1K
0P
1Q
0x
0$!
1&!
b00001 -!
b00001 .!
b00001 0!
02!
#114000
0#
0.
0B
0T
0g
0k
0}
#116000
1"
0&
1-
01
b0001 8
b00001 :
0>
1A
0E
0K
b0001 L
b00001 N
1P
0Q
b0001 R
1x
b00001 !!
1$!
0&!
b0001 (!
b00001 )!
b00001 ,!
12!
#117000
1#
1.
1B
1T
1g
1k
1}
b00001 #!
#120000
0"
0#
b00000000000000000000000000000001 %
1&
0-
0.
b00000000000000000000000000000001 0
11
1>
0A
0B
1E
1K
0P
1Q
b00000000000000000000000000000001 S
0T
0g
0k
0x
0}
0$!
1&!
b00010 -!
b00011 .!
b00010 0!
02!
#123000
1#
1.
b00001 <
1B
1T
1g
1k
b00001 n
b00001 v
b00001 w
1}
b00001 "!
#124000
1"
0&
1-
01
b0010 8
b00011 :
0>
1A
0E
0K
b0010 L
b00011 N
1P
0Q
b0010 R
b00000000000000000000000000000001 X
1x
b00011 !!
1$!
0&!
b0010 (!
b00011 )!
b00010 ,!
12!
#126000
0#
0.
0B
0T
0g
0k
0}
#128000
0"
b00000000000000000000000000000010 %
1&
0-
b00000000000000000000000000000010 0
11
1>
0A
1E
1K
0P
1Q
b00000000000000000000000000000010 S
0x
0$!
1&!
b00011 -!
b00010 .!
b00011 0!
02!
#129000
1#
0+
1.
06
1B
0I
1T
1g
1k
0q
1}
b00011 #!
#132000
1"
0#
0&
1-
0.
01
b0011 8
b00010 :
0>
1A
0B
0E
0K
b0011 L
b00010 N
1P
0Q
b0011 R
0T
b00000000000000000000000000000010 Y
0g
0k
1x
0}
b00010 !!
1$!
0&!
b0011 (!
b00010 )!
b00011 ,!
12!
#135000
1#
1.
b00011 <
1B
1T
1g
1k
b00011 n
b00010 v
b00010 w
1}
b00011 "!
b00010 #!
#136000
0"
b00000000000000000000000000000011 %
1&
0-
b00000000000000000000000000000011 0
11
1>
0A
1E
1K
0P
1Q
b00000000000000000000000000000011 S
0x
0$!
1&!
b00100 -!
b00110 .!
b00100 0!
02!
#138000
0#
0.
0B
0T
0g
0k
0}
#140000
1"
0&
1-
01
b0100 8
b00110 :
0>
1A
0E
0K
b0100 L
b00110 N
1P
0Q
b0100 R
b00000000000000000000000000000011 Z
1x
b00110 !!
1$!
0&!
b0100 (!
b00110 )!
b00100 ,!
12!
#141000
1#
1.
b00010 <
1B
1T
1g
1k
b00010 n
b00011 v
b00011 w
1}
b00010 "!
b00110 #!
#144000
0"
0#
b00000000000000000000000000000100 %
1&
0-
0.
b00000000000000000000000000000100 0
11
1>
0A
0B
1E
1K
0P
1Q
b00000000000000000000000000000100 S
0T
0g
0k
0x
0}
0$!
1&!
b00101 -!
b00111 .!
b00101 0!
02!
#147000
1#
1.
b00110 <
1B
1T
1g
1k
b00110 n
b00100 v
b00100 w
1}
b00110 "!
#148000
1"
0&
1-
01
b0101 8
b00111 :
0>
1A
0E
0K
b0101 L
b00111 N
1P
0Q
b0101 R
b00000000000000000000000000000100 [
1x
b00111 !!
1$!
0&!
b0101 (!
b00111 )!
b00101 ,!
12!
#150000
0#
0.
0B
0T
0g
0k
0}
#152000
0"
b00000000000000000000000000000101 %
1&
0-
b00000000000000000000000000000101 0
11
1>
0A
1E
1K
0P
1Q
b00000000000000000000000000000101 S
0x
0$!
1&!
b00110 -!
b00101 .!
b00110 0!
02!
#153000
1#
1.
1B
1T
1g
1k
1}
b00111 #!
#156000
1"
0#
0&
1-
0.
01
b0110 8
b00101 :
0>
1A
0B
0E
0K
b0110 L
b00101 N
1P
0Q
b0110 R
0T
b00000000000000000000000000000101 \
0g
0k
1x
0}
b00101 !!
1$!
0&!
b0110 (!
b00101 )!
b00110 ,!
12!
#159000
1#
1.
b00111 <
1B
1T
1g
1k
b00111 n
b00101 v
b00101 w
1}
b00111 "!
b00101 #!
#160000
0"
b00000000000000000000000000000110 %
1&
0-
b00000000000000000000000000000110 0
11
1>
0A
1E
1K
0P
1Q
b00000000000000000000000000000110 S
0x
0$!
1&!
b00111 -!
b00100 .!
b00111 0!
02!
#162000
0#
0.
0B
0T
0g
0k
0}
#164000
1"
0&
1-
01
b0111 8
b00100 :
0>
1A
0E
0K
b0111 L
b00100 N
1P
0Q
b0111 R
b00000000000000000000000000000110 ]
1x
b00100 !!
1$!
0&!
b0111 (!
b00100 )!
b00111 ,!
12!
#165000
1#
0,
1.
07
b00101 <
1B
0J
1T
1g
1k
b00101 n
0r
b00110 v
b00110 w
1}
b00101 "!
b00100 #!
#168000
0"
0#
b00000000000000000000000000000111 %
1&
0-
0.
b00000000000000000000000000000111 0
11
1>
0A
0B
1E
1K
0P
1Q
b00000000000000000000000000000111 S
0T
0g
0k
0x
0}
0$!
1&!
b01000 -!
b01100 .!
b01000 0!
02!
#171000
1#
1.
b00100 <
1B
1T
1g
1k
b00100 n
b00111 v
b00111 w
1}
b00100 "!
#172000
1"
0&
1-
01
b1000 8
b01100 :
0>
1A
0E
0K
b1000 L
b01100 N
1P
0Q
b1000 R
b00000000000000000000000000000111 ^
1x
b01100 !!
1$!
0&!
b1000 (!
b01100 )!
b01000 ,!
12!
#174000
0#
0.
0B
0T
0g
0k
0}
#176000
0"
b00000000000000000000000000001000 %
1&
0-
b00000000000000000000000000001000 0
11
1>
0A
1E
1K
0P
1Q
b00000000000000000000000000001000 S
0x
0$!
1&!
b01001 -!
b01101 .!
b01001 0!
02!
#177000
1#
1.
1B
1T
1g
1k
1}
b01100 #!
#180000
1"
0#
0&
1-
0.
01
b1001 8
b01101 :
0>
1A
0B
0E
0K
b1001 L
b01101 N
1P
0Q
b1001 R
0T
b00000000000000000000000000001000 _
0g
0k
1x
0}
b01101 !!
1$!
0&!
b1001 (!
b01101 )!
b01001 ,!
12!
#183000
1#
1.
b01100 <
1B
1T
1g
1k
b01100 n
b01000 v
b01000 w
1}
b01100 "!
b01101 #!
#184000
0"
b00000000000000000000000000001001 %
1&
0-
b00000000000000000000000000001001 0
11
1>
0A
1E
1K
0P
1Q
b00000000000000000000000000001001 S
0x
0$!
1&!
b01010 -!
b01111 .!
b01010 0!
02!
#186000
0#
0.
0B
0T
0g
0k
0}
#188000
1"
0&
1-
01
b1010 8
b01111 :
0>
1A
0E
0K
b1010 L
b01111 N
1P
0Q
b1010 R
b00000000000000000000000000001001 `
1x
b01111 !!
1$!
0&!
b1010 (!
b01111 )!
b01010 ,!
12!
#189000
1#
1.
b01101 <
1B
1T
1g
1k
b01101 n
b01001 v
b01001 w
1}
b01101 "!
b01111 #!
#192000
0"
0#
b00000000000000000000000000001010 %
1&
0-
0.
b00000000000000000000000000001010 0
11
1>
0A
0B
1E
1K
0P
1Q
b00000000000000000000000000001010 S
0T
0g
0k
0x
0}
0$!
1&!
b01011 -!
b01110 .!
b01011 0!
02!
#195000
1#
1.
b01111 <
1B
1T
1g
1k
b01111 n
b01010 v
b01010 w
1}
b01111 "!
#196000
1"
0&
1-
01
b1011 8
b01110 :
0>
1A
0E
0K
b1011 L
b01110 N
1P
0Q
b1011 R
b00000000000000000000000000001010 a
1x
b01110 !!
1$!
0&!
b1011 (!
b01110 )!
b01011 ,!
12!
#198000
0#
0.
0B
0T
0g
0k
0}
#200000
0"
b00000000000000000000000000001011 %
1&
0-
b00000000000000000000000000001011 0
11
1>
0A
1E
1K
0P
1Q
b00000000000000000000000000001011 S
0x
0$!
1&!
b01100 -!
b01010 .!
b01100 0!
02!
#201000
1#
1.
1B
1T
1g
1k
1}
b01110 #!
#204000
1"
0#
0&
1(
1-
0.
01
13
b1100 8
b01010 :
0>
1A
0B
0E
1H
0K
b1100 L
b01010 N
1P
0Q
b1100 R
0T
b00000000000000000000000000001011 b
0g
0k
1x
0}
b01010 !!
1$!
0&!
b1100 (!
b01010 )!
1+!
b01100 ,!
12!
#207000
1#
1.
b01110 <
1B
1T
1g
1k
b01110 n
b01011 v
b01011 w
1}
b01110 "!
b01010 #!
#208000
0"
b00000000000000000000000000001100 %
1&
0-
b00000000000000000000000000001100 0
11
1>
0A
1E
1K
0P
1Q
b00000000000000000000000000001100 S
0x
0$!
1&!
b01101 -!
b01011 .!
b01101 0!
02!
#210000
0#
0.
0B
0T
0g
0k
0}
#212000
1"
0&
1-
01
b1101 8
b01011 :
0>
1A
0E
0K
b1101 L
b01011 N
1P
0Q
b1101 R
b00000000000000000000000000001100 c
1x
b01011 !!
1$!
0&!
b1101 (!
b01011 )!
b01101 ,!
12!
#213000
1#
1.
b01010 <
1B
1T
1g
1k
b01010 n
b01100 v
b01100 w
1}
b01010 "!
b01011 #!
#216000
0"
0#
b00000000000000000000000000001101 %
1&
0-
0.
b00000000000000000000000000001101 0
11
1>
0A
0B
1E
1K
0P
1Q
b00000000000000000000000000001101 S
0T
0g
0k
0x
0}
0$!
1&!
b01110 -!
b01001 .!
b01110 0!
02!
#219000
1#
1.
b01011 <
1B
1T
1g
1k
b01011 n
b01101 v
b01101 w
1}
b01011 "!
#220000
1"
0&
1-
01
b1110 8
b01001 :
0>
1A
0E
0K
b1110 L
b01001 N
1P
0Q
b1110 R
b00000000000000000000000000001101 d
1x
b01001 !!
1$!
0&!
b1110 (!
b01001 )!
b01110 ,!
12!
#222000
0#
0.
0B
0T
0g
0k
0}
#224000
0"
b00000000000000000000000000001110 %
1&
0-
b00000000000000000000000000001110 0
11
1>
0A
1E
1K
0P
1Q
b00000000000000000000000000001110 S
0x
0$!
1&!
b01111 -!
b01000 .!
b01111 0!
02!
#225000
1#
1.
1B
1T
1g
1k
1}
b01001 #!
#228000
1"
0#
0&
1-
0.
01
b1111 8
b01000 :
0>
1A
0B
0E
0K
b1111 L
b01000 N
1P
0Q
b1111 R
0T
b00000000000000000000000000001110 e
0g
0k
1x
0}
b01000 !!
1$!
0&!
b1111 (!
b01000 )!
b01111 ,!
12!
#231000
1#
1.
b01001 <
1B
1T
1g
1k
b01001 n
b01110 v
b01110 w
1}
b01001 "!
b01000 #!
#232000
0"
b00000000000000000000000000001111 %
1&
0-
b00000000000000000000000000001111 0
11
1>
0A
1E
1K
0P
1Q
b00000000000000000000000000001111 S
0x
0$!
1&!
b10000 -!
b11000 .!
b10000 0!
11!
02!
#234000
0#
0.
0B
0T
0g
0k
0}
#236000
1"
0&
1'
1-
01
12
b0000 8
b11000 :
0>
1A
0E
1G
0K
b0000 L
b11000 N
1P
0Q
b0000 R
b00000000000000000000000000001111 f
1x
b11000 !!
1$!
0&!
b0000 (!
b11000 )!
1*!
b10000 ,!
12!
#237000
1#
1.
b01000 <
1B
1T
1g
1k
b01000 n
b01111 v
b01111 w
1}
b01000 "!
b11000 #!
#240000
0"
0#
b00000000000000001010101111001101 %
1&
0-
0.
b00000000000000001010101111001101 0
11
0A
0B
1E
0P
b00000000000000001010101111001101 S
0T
0g
0k
0x
0}
0$!
1&!
02!
#243000
1#
1.
b11000 <
1B
1T
1g
1k
b11000 n
b10000 v
b10000 w
1}
b11000 "!
#244000
1"
0&
1-
01
1A
0E
1P
1x
1$!
0&!
12!
#246000
0#
0.
0B
0T
0g
0k
0}
#248000
0"
0-
0A
0P
0x
0$!
02!
#249000
1#
1.
1B
1T
1g
1k
1}
#252000
1"
0#
1-
0.
1A
0B
1P
0T
0g
0k
1x
0}
1$!
12!
#255000
1#
1.
1B
1T
1g
1k
1}
#256000
0"
0-
0A
0P
0x
0$!
02!
#258000
0#
0.
0B
0T
0g
0k
0}
#260000
1"
1-
1A
1P
1x
1$!
12!
#261000
1#
1.
1B
1T
1g
1k
1}
#264000
0"
0#
0-
0.
0A
0B
0P
0T
0g
0k
0x
0}
0$!
02!
#267000
1#
1.
1B
1T
1g
1k
1}
#268000
1"
1-
1A
1P
1x
1$!
12!
#270000
0#
1*
0.
15
0B
1F
0T
0g
0k
1m
b00001 t
b00001 u
b01111 w
0}
#272000
0"
0-
0A
0P
0x
0$!
02!
#273000
1#
0*
1.
05
b0001 9
b00001 ;
1B
0F
b0001 M
b00001 O
1T
b0001 U
1g
1k
0m
b0001 o
b00001 p
b00001 s
b00001 z
1}
#276000
1"
0#
1*
1-
0.
15
1A
0B
1F
1P
0T
0g
0k
1m
b00010 t
b00011 u
b01110 w
1x
b00001 |
0}
1$!
12!
#279000
1#
b00000000000000000000000000000001 )
0*
1.
b00000000000000000000000000000001 4
05
b0010 9
b00011 ;
1B
0F
b0010 M
b00011 O
1T
b0010 U
b00000000000000000000000000000001 V
1g
1k
0m
b0010 o
b00011 p
b00010 s
b00011 z
1}
#280000
0"
0-
0A
0P
0x
0$!
02!
#282000
0#
1*
0.
15
0B
1F
0T
0g
0k
1m
b00011 t
b00010 u
b01101 w
0}
#284000
1"
1-
b00001 =
1A
1P
1x
b00001 {
b00011 |
1$!
b00001 '!
b00001 /!
b01111 0!
01!
12!
#285000
1#
b00000000000000000000000000000010 )
0*
1.
b00000000000000000000000000000010 4
05
b0011 9
b00010 ;
1B
0F
b0011 M
b00010 O
1T
b0011 U
b00000000000000000000000000000010 V
1g
1k
0m
b0011 o
b00010 p
b00011 s
b00010 z
1}
#288000
0"
0#
1*
0-
0.
15
0A
0B
1F
0P
0T
0g
0k
1m
b00100 t
b00110 u
b01100 w
0x
0}
0$!
02!
#291000
1#
b00000000000000000000000000000011 )
0*
1.
b00000000000000000000000000000011 4
05
b0100 9
b00110 ;
1B
0F
b0100 M
b00110 O
1T
b0100 U
b00000000000000000000000000000011 V
1g
1k
0m
b0100 o
b00110 p
b00100 s
b00110 z
1}
#292000
1"
0'
1-
02
b00011 =
1A
0G
1P
1x
b00011 {
b00110 |
1$!
b00011 '!
0*!
b00010 /!
b01110 0!
12!
#294000
0#
1*
0.
15
0B
1F
0T
0g
0k
1m
b00101 t
b00111 u
b01011 w
0}
#296000
0"
0-
0A
0P
0x
0$!
02!
#297000
1#
b00000000000000000000000000000100 )
0*
1.
b00000000000000000000000000000100 4
05
b0101 9
b00111 ;
1B
0F
b0101 M
b00111 O
1T
b0101 U
b00000000000000000000000000000100 V
1g
1k
0m
b0101 o
b00111 p
b00101 s
b00111 z
1}
#300000
1"
0#
1*
1-
0.
15
b00110 =
1A
0B
1F
1P
0T
0g
0k
1m
b00110 t
b00101 u
b01010 w
1x
b00110 {
b00111 |
0}
1$!
b00110 '!
b00100 /!
b01100 0!
12!
#303000
1#
b00000000000000000000000000000101 )
0*
1.
b00000000000000000000000000000101 4
05
b0110 9
b00101 ;
1B
0F
b0110 M
b00101 O
1T
b0110 U
b00000000000000000000000000000101 V
1g
1k
0m
b0110 o
b00101 p
b00110 s
b00101 z
1}
#304000
0"
0-
0A
0P
0x
0$!
02!
#306000
0#
1*
0.
15
0B
1F
0T
0g
0k
1m
b00111 t
b00100 u
b01001 w
0}
#308000
1"
1-
b00111 =
1A
1P
1x
b00111 {
b00101 |
1$!
b00111 '!
b00101 /!
b01011 0!
12!
#309000
1#
b00000000000000000000000000000110 )
0*
1.
b00000000000000000000000000000110 4
05
b0111 9
b00100 ;
1B
0F
b0111 M
b00100 O
1T
b0111 U
b00000000000000000000000000000110 V
1g
1k
0m
b0111 o
b00100 p
b00111 s
b00100 z
1}
#312000
0"
0#
1*
0-
0.
15
0A
0B
1F
0P
0T
0g
0k
1m
b01000 t
b01100 u
b01000 w
0x
0}
0$!
02!
#315000
1#
b00000000000000000000000000000111 )
0*
1.
b00000000000000000000000000000111 4
05
b1000 9
b01100 ;
1B
0F
b1000 M
b01100 O
1T
b1000 U
b00000000000000000000000000000111 V
1g
1k
0m
b1000 o
b01100 p
b01000 s
b01100 z
1}
#316000
1"
0(
1-
03
b00101 =
1A
0H
1P
1x
b00101 {
b01100 |
1$!
b00101 '!
0+!
b00110 /!
b01010 0!
12!
#318000
0#
1*
0.
15
0B
1F
0T
0g
0k
1m
b01001 t
b01101 u
b00111 w
0}
#320000
0"
0-
0A
0P
0x
0$!
02!
#321000
1#
b00000000000000000000000000001000 )
0*
1.
b00000000000000000000000000001000 4
05
b1001 9
b01101 ;
1B
0F
b1001 M
b01101 O
1T
b1001 U
b00000000000000000000000000001000 V
1g
1k
0m
b1001 o
b01101 p
b01001 s
b01101 z
1}
#324000
1"
0#
1*
1-
0.
15
b01100 =
1A
0B
1F
1P
0T
0g
0k
1m
b01010 t
b01111 u
b00110 w
1x
b01100 {
b01101 |
0}
1$!
b01100 '!
b01000 /!
b01000 0!
12!
#327000
1#
b00000000000000000000000000001001 )
0*
1.
b00000000000000000000000000001001 4
05
b1010 9
b01111 ;
1B
0F
b1010 M
b01111 O
1T
b1010 U
b00000000000000000000000000001001 V
1g
1k
0m
b1010 o
b01111 p
b01010 s
b01111 z
1}
#328000
0"
0-
0A
0P
0x
0$!
02!
#330000
0#
1*
0.
15
0B
1F
0T
0g
0k
1m
b01011 t
b01110 u
b00101 w
0}
#332000
1"
1-
b01101 =
1A
1P
1x
b01101 {
b01111 |
1$!
b01101 '!
b01001 /!
b00111 0!
12!
#333000
1#
b00000000000000000000000000001010 )
0*
1.
b00000000000000000000000000001010 4
05
b1011 9
b01110 ;
1B
0F
b1011 M
b01110 O
1T
b1011 U
b00000000000000000000000000001010 V
1g
1k
0m
b1011 o
b01110 p
b01011 s
b01110 z
1}
#336000
0"
0#
1*
0-
0.
15
0A
0B
1F
0P
0T
0g
0k
1m
b01100 t
b01010 u
b00100 w
0x
0}
0$!
02!
#339000
1#
b00000000000000000000000000001011 )
0*
1,
1.
b00000000000000000000000000001011 4
05
17
b1100 9
b01010 ;
1B
0F
1J
b1100 M
b01010 O
1T
b1100 U
b00000000000000000000000000001011 V
1g
1k
0m
b1100 o
b01010 p
1r
b01100 s
b01010 z
1}
#340000
1"
1-
b01111 =
1A
1P
1x
b01111 {
b01010 |
1$!
b01111 '!
b01010 /!
b00110 0!
12!
#342000
0#
1*
0.
15
0B
1F
0T
0g
0k
1m
b01101 t
b01011 u
b00011 w
0}
#344000
0"
0-
0A
0P
0x
0$!
02!
#345000
1#
b00000000000000000000000000001100 )
0*
1.
b00000000000000000000000000001100 4
05
b1101 9
b01011 ;
1B
0F
b1101 M
b01011 O
1T
b1101 U
b00000000000000000000000000001100 V
1g
1k
0m
b1101 o
b01011 p
b01101 s
b01011 z
1}
#348000
1"
0#
1*
1-
0.
15
b01010 =
1A
0B
1F
1P
0T
0g
0k
1m
b01110 t
b01001 u
b00010 w
1x
b01010 {
b01011 |
0}
1$!
b01010 '!
b01100 /!
b00100 0!
12!
