docs/results/eth_basic.vcd
$version Generated by VerilatedVcd $end
$timescale 1ps $end
 $scope module $rootio $end
  $var wire 1 " clk $end
  $var wire 1 # rst_n $end
  $var wire 64 $ s_axis_tdata [63:0] $end
  $var wire 8 & s_axis_tkeep [7:0] $end
  $var wire 1 ' s_axis_tvalid $end
  $var wire 1 ( s_axis_tready $end
  $var wire 1 ) s_axis_tlast $end
  $var wire 64 * m_axis_tdata [63:0] $end
  $var wire 8 , m_axis_tkeep [7:0] $end
  $var wire 1 - m_axis_tvalid $end
  $var wire 1 . m_axis_tready $end
  $var wire 1 / m_axis_tlast $end
  $var wire 48 0 dst_mac [47:0] $end
  $var wire 48 2 src_mac [47:0] $end
  $var wire 16 4 ether_type [15:0] $end
  $var wire 1 5 hdr_valid $end
  $var wire 1 6 hdr_ready $end
  $var wire 1 7 frame_error $end
 $upscope $end
 $scope module eth_frame_parser $end
  $var wire 1 8 clk $end
  $var wire 1 9 rst_n $end
  $var wire 64 : s_axis_tdata [63:0] $end
  $var wire 8 < s_axis_tkeep [7:0] $end
  $var wire 1 = s_axis_tvalid $end
  $var wire 1 > s_axis_tready $end
  $var wire 1 ? s_axis_tlast $end
  $var wire 64 @ m_axis_tdata [63:0] $end
  $var wire 8 B m_axis_tkeep [7:0] $end
  $var wire 1 C m_axis_tvalid $end
  $var wire 1 D m_axis_tready $end
  $var wire 1 E m_axis_tlast $end
  $var wire 48 F dst_mac [47:0] $end
  $var wire 48 H src_mac [47:0] $end
  $var wire 16 J ether_type [15:0] $end
  $var wire 1 K hdr_valid $end
  $var wire 1 L hdr_ready $end
  $var wire 1 M frame_error $end
  $var wire 2 [ ST_IDLE [1:0] $end
  $var wire 2 \ ST_HEADER1 [1:0] $end
  $var wire 2 ] ST_PAYLOAD [1:0] $end
  $var wire 2 ^ ST_FLUSH [1:0] $end
  $var wire 2 N state [1:0] $end
  $var wire 48 O dst_mac_next [47:0] $end
  $var wire 16 Q src_mac_hi [15:0] $end
  $var wire 16 R carry_data [15:0] $end
  $var wire 2 S carry_keep [1:0] $end
  $var wire 1 T flush_pending $end
  $var wire 1 U output_ready $end
  $var wire 1 V input_fire $end
  $var wire 1 W header0_valid $end
  $var wire 1 X header1_valid $end
  $var wire 8 Y payload_keep [7:0] $end
  $var wire 8 Z flush_keep [7:0] $end
 $upscope $end
 $scope module pkg_defines $end
  $var wire 32 _ AXIS_DATA_WIDTH [31:0] $end
  $var wire 32 ` AXIS_KEEP_WIDTH [31:0] $end
  $var wire 32 a AXIS_WORD_WIDTH [31:0] $end
  $var wire 16 b ETHERTYPE_IPV4 [15:0] $end
  $var wire 8 c IP_PROTO_UDP [7:0] $end
  $var wire 16 d MARKET_DATA_PORT [15:0] $end
 $upscope $end
$enddefinitions $end


#0
1"
0#
b0000000000000000000000000000000000000000000000000000000000000000 $
b00000000 &
0'
1(
0)
b0000000000000000000000000000000000000000000000000000000000000000 *
b00000000 ,
0-
1.
0/
b000000000000000000000000000000000000000000000000 0
b000000000000000000000000000000000000000000000000 2
b0000000000000000 4
05
16
07
18
09
b0000000000000000000000000000000000000000000000000000000000000000 :
b00000000 <
0=
1>
0?
b0000000000000000000000000000000000000000000000000000000000000000 @
b00000000 B
0C
1D
0E
b000000000000000000000000000000000000000000000000 F
b000000000000000000000000000000000000000000000000 H
b0000000000000000 J
0K
1L
0M
b00 N
b000000000000000000000000000000000000000000000000 O
b0000000000000000 Q
b0000000000000000 R
b00 S
0T
1U
0V
0W
0X
b00000000 Y
b00000000 Z
b00 [
b01 \
b10 ]
b11 ^
b00000000000000000000000001000000 _
b00000000000000000000000000001000 `
b00000000000000000000000001001001 a
b0000100000000000 b
b00010001 c
b0011000000111001 d
#5000
0"
08
#10000
1"
18
#15000
0"
08
#20000
1"
18
#25000
0"
08
#30000
1"
18
#35000
0"
08
#40000
1"
1#
18
19
#45000
0"
08
#50000
1"
18
#55000
0"
08
#60000
1"
18
#65000
0"
08
#70000
1"
18
#75000
0"
b1011101110101010010101010100010000110011001000100001000100000000 $
b11111111 &
1'
08
b1011101110101010010101010100010000110011001000100001000100000000 :
b11111111 <
1=
1V
1W
1X
b11111100 Y
#80000
1"
18
b01 N
b000000000001000100100010001100110100010001010101 O
b1010101010111011 Q
#85000
0"
b1000000110000000000000000000100011111111111011101101110111001100 $
08
b1000000110000000000000000000100011111111111011101101110111001100 :
#90000
1"
b000000000001000100100010001100110100010001010101 0
b101010101011101111001100110111011110111011111111 2
b0000100000000000 4
15
18
b000000000001000100100010001100110100010001010101 F
b101010101011101111001100110111011110111011111111 H
b0000100000000000 J
1K
b10 N
b1000000110000000 R
b11 S
b11111111 Y
b00000011 Z
#95000
0"
b1000100110001000100001111000011010000101100001001000001110000010 $
1)
08
b1000100110001000100001111000011010000101100001001000001110000010 :
1?
#100000
1"
0(
b1000011110000110100001011000010010000011100000101000000110000000 *
b11111111 ,
1-
05
18
0>
b1000011110000110100001011000010010000011100000101000000110000000 @
b11111111 B
1C
0K
b11 N
b1000100110001000 R
1T
0V
#105000
0"
0'
0)
08
0=
0?
#110000
1"
1(
b0000000000000000000000000000000000000000000000001000100110001000 *
b00000011 ,
1/
18
1>
b0000000000000000000000000000000000000000000000001000100110001000 @
b00000011 B
1E
b00 N
0T
#115000
0"
08
#120000
1"
b00000000 ,
0-
0/
18
b00000000 B
0C
0E
