docs/results/ipv4_basic.vcd
$version Generated by VerilatedVcd $end
$timescale 1ps $end
 $scope module $rootio $end
  $var wire 1 " clk $end
  $var wire 1 # rst_n $end
  $var wire 64 $ s_axis_tdata [63:0] $end
  $var wire 8 & s_axis_tkeep [7:0] $end
  $var wire 1 ' s_axis_tvalid $end
  $var wire 1 ( s_axis_tready $end
  $var wire 1 ) s_axis_tlast $end
  $var wire 64 * m_axis_tdata [63:0] $end
  $var wire 8 , m_axis_tkeep [7:0] $end
  $var wire 1 - m_axis_tvalid $end
  $var wire 1 . m_axis_tready $end
  $var wire 1 / m_axis_tlast $end
  $var wire 4 0 version [3:0] $end
  $var wire 4 1 ihl [3:0] $end
  $var wire 16 2 total_length [15:0] $end
  $var wire 8 3 protocol [7:0] $end
  $var wire 32 4 src_ip [31:0] $end
  $var wire 32 5 dst_ip [31:0] $end
  $var wire 1 6 hdr_valid $end
  $var wire 1 7 hdr_ready $end
  $var wire 1 8 err_version $end
  $var wire 1 9 err_options $end
  $var wire 1 : err_checksum $end
  $var wire 1 ; err_truncated $end
 $upscope $end
 $scope module ipv4_parser $end
  $var wire 1 < clk $end
  $var wire 1 = rst_n $end
  $var wire 64 > s_axis_tdata [63:0] $end
  $var wire 8 @ s_axis_tkeep [7:0] $end
  $var wire 1 A s_axis_tvalid $end
  $var wire 1 B s_axis_tready $end
  $var wire 1 C s_axis_tlast $end
  $var wire 64 D m_axis_tdata [63:0] $end
  $var wire 8 F m_axis_tkeep [7:0] $end
  $var wire 1 G m_axis_tvalid $end
  $var wire 1 H m_axis_tready $end
  $var wire 1 I m_axis_tlast $end
  $var wire 4 J version [3:0] $end
  $var wire 4 K ihl [3:0] $end
  $var wire 16 L total_length [15:0] $end
  $var wire 8 M protocol [7:0] $end
  $var wire 32 N src_ip [31:0] $end
  $var wire 32 O dst_ip [31:0] $end
  $var wire 1 P hdr_valid $end
  $var wire 1 Q hdr_ready $end
  $var wire 1 R err_version $end
  $var wire 1 S err_options $end
  $var wire 1 T err_checksum $end
  $var wire 1 U err_truncated $end
  $var wire 3 p ST_IDLE [2:0] $end
  $var wire 3 q ST_HDR1 [2:0] $end
  $var wire 3 r ST_HDR2 [2:0] $end
  $var wire 3 s ST_PAYLOAD [2:0] $end
  $var wire 3 t ST_FLUSH [2:0] $end
  $var wire 3 u ST_DRAIN [2:0] $end
  $var wire 3 V state [2:0] $end
  $var wire 4 W version_r [3:0] $end
  $var wire 4 X ihl_r [3:0] $end
  $var wire 16 Y total_length_r [15:0] $end
  $var wire 8 Z protocol_r [7:0] $end
  $var wire 32 [ src_ip_r [31:0] $end
  $var wire 32 \ carry_data [31:0] $end
  $var wire 4 ] carry_keep [3:0] $end
  $var wire 1 ^ flush_pending $end
  $var wire 32 _ csum_acc [31:0] $end
  $var wire 1 ` output_ready $end
  $var wire 1 a input_fire $end
  $var wire 1 b full_beat $end
  $var wire 1 c tail4_present $end
  $var wire 8 d payload_keep [7:0] $end
  $var wire 8 e flush_keep [7:0] $end
  $var wire 32 f cw0 [31:0] $end
  $var wire 32 g cw1 [31:0] $end
  $var wire 32 h cw2 [31:0] $end
  $var wire 32 i cw3 [31:0] $end
  $var wire 32 j sum_full [31:0] $end
  $var wire 32 k sum_half [31:0] $end
  $var wire 32 l csum_total [31:0] $end
  $var wire 32 m csum_fold1 [31:0] $end
  $var wire 32 n csum_fold2 [31:0] $end
  $var wire 1 o checksum_ok $end
 $upscope $end
 $scope module pkg_defines $end
  $var wire 32 v AXIS_DATA_WIDTH [31:0] $end
  $var wire 32 w AXIS_KEEP_WIDTH [31:0] $end
  $var wire 32 x AXIS_WORD_WIDTH [31:0] $end
  $var wire 16 y ETHERTYPE_IPV4 [15:0] $end
  $var wire 8 z IP_PROTO_UDP [7:0] $end
  $var wire 16 { MARKET_DATA_PORT [15:0] $end
 $upscope $end
$enddefinitions $end


#0
1"
0#
b0000000000000000000000000000000000000000000000000000000000000000 $
b00000000 &
0'
1(
0)
b0000000000000000000000000000000000000000000000000000000000000000 *
b00000000 ,
0-
1.
0/
b0000 0
b0000 1
b0000000000000000 2
b00000000 3
b00000000000000000000000000000000 4
b00000000000000000000000000000000 5
06
17
08
09
0:
0;
1<
0=
b0000000000000000000000000000000000000000000000000000000000000000 >
b00000000 @
0A
1B
0C
b0000000000000000000000000000000000000000000000000000000000000000 D
b00000000 F
0G
1H
0I
b0000 J
b0000 K
b0000000000000000 L
b00000000 M
b00000000000000000000000000000000 N
b00000000000000000000000000000000 O
0P
1Q
0R
0S
0T
0U
b000 V
b0000 W
b0000 X
b0000000000000000 Y
b00000000 Z
b00000000000000000000000000000000 [
b00000000000000000000000000000000 \
b0000 ]
0^
b00000000000000000000000000000000 _
1`
0a
0b
0c
b00000000 d
b00000000 e
b00000000000000000000000000000000 f
b00000000000000000000000000000000 g
b00000000000000000000000000000000 h
b00000000000000000000000000000000 i
b00000000000000000000000000000000 j
b00000000000000000000000000000000 k
b00000000000000000000000000000000 l
b00000000000000000000000000000000 m
b00000000000000000000000000000000 n
0o
b000 p
b001 q
b010 r
b011 s
b100 t
b101 u
b00000000000000000000000001000000 v
b00000000000000000000000000001000 w
b00000000000000000000000001001001 x
b0000100000000000 y
b00010001 z
b0011000000111001 {
#5000
0"
0<
#10000
1"
1<
#15000
0"
0<
#20000
1"
1<
#25000
0"
0<
#30000
1"
1<
#35000
0"
0<
#40000
1"
1#
1<
1=
#45000
0"
0<
#50000
1"
1<
#55000
0"
0<
#60000
1"
1<
#65000
0"
0<
#70000
1"
1<
#75000
0"
b0000000000000000000000000000000000011110000000000000000001000101 $
b11111111 &
1'
0<
b0000000000000000000000000000000000011110000000000000000001000101 >
b11111111 @
1A
1a
1b
1c
b11110000 d
b00000000000000000100010100000000 f
b00000000000000000000000000011110 g
b00000000000000000100010100011110 j
b00000000000000000100010100011110 k
b00000000000000000100010100011110 l
b00000000000000000100010100011110 m
b00000000000000000100010100011110 n
#80000
1"
1<
b001 V
b0100 W
b0101 X
b0000000000011110 Y
b00000000000000000100010100011110 _
b00000000000000001000101000111100 l
b00000000000000001000101000111100 m
b00000000000000001000101000111100 n
#85000
0"
b0000000100000000101010001100000001111011111110010001000101000000 $
0<
b0000000100000000101010001100000001111011111110010001000101000000 >
b00000000000000000100000000010001 f
b00000000000000001111100101111011 g
b00000000000000001100000010101000 h
b00000000000000000000000000000001 i
b00000000000000011111101000110101 j
b00000000000000010011100110001100 k
b00000000000000010111111010101010 l
b00000000000000000111111010101011 m
b00000000000000000111111010101011 n
#90000
1"
1<
b010 V
b00010001 Z
b11000000101010000000000000000001 [
b00000000000000100011111101010011 _
b00000000000000110111100011011111 l
b00000000000000000111100011100010 m
b00000000000000000111100011100010 n
#95000
0"
b1000001110000010100000011000000000000010000000001010100011000000 $
0<
b1000001110000010100000011000000000000010000000001010100011000000 >
b00000000000000001100000010101000 f
b00000000000000000000000000000010 g
b00000000000000001000000010000001 h
b00000000000000001000001010000011 i
b00000000000000011100001110101110 j
b00000000000000001100000010101010 k
b00000000000000101111111111111101 l
b00000000000000001111111111111111 m
b00000000000000001111111111111111 n
1o
#100000
1"
b0100 0
b0101 1
b0000000000011110 2
b00010001 3
b11000000101010000000000000000001 4
b11000000101010000000000000000010 5
16
1<
b0100 J
b0101 K
b0000000000011110 L
b00010001 M
b11000000101010000000000000000001 N
b11000000101010000000000000000010 O
1P
b011 V
b10000011100000101000000110000000 \
b1111 ]
b11111111 d
b00001111 e
#105000
0"
b0000000000000000100010011000100010000111100001101000010110000100 $
b00111111 &
1)
0<
b0000000000000000100010011000100010000111100001101000010110000100 >
b00111111 @
1C
0b
b00000000000000001000010010000101 f
b00000000000000001000011010000111 g
b00000000000000001000100010001001 h
b00000000000000000000000000000000 i
b00000000000000011001001110010101 j
b00000000000000010000101100001100 k
b00000000000000110100101001011111 l
b00000000000000000100101001100010 m
b00000000000000000100101001100010 n
0o
#110000
1"
0(
b1000011110000110100001011000010010000011100000101000000110000000 *
b11111111 ,
1-
06
1<
0B
b1000011110000110100001011000010010000011100000101000000110000000 D
b11111111 F
1G
0P
b100 V
b00000000000000001000100110001000 \
b0011 ]
1^
0a
b11110011 d
b00000011 e
#115000
0"
0'
0)
0<
0A
0C
#120000
1"
1(
b0000000000000000000000000000000000000000000000001000100110001000 *
b00000011 ,
1/
1<
1B
b0000000000000000000000000000000000000000000000001000100110001000 D
b00000011 F
1I
b000 V
0^
#125000
0"
0<
#130000
1"
b00000000 ,
0-
0/
1<
b00000000 F
0G
0I
